{
	"_meta": {
		"success": true,
		"code": 200,
		"message": "OK. Everything worked as expected.",
		"totalCount": 1557,
		"pageCount": 78,
		"currentPage": 1,
		"perPage": 20,
		"rateLimit": {
			"limit": 30,
			"remaining": 29,
			"reset": 2
		}
	},
	"result": [
		{
			"id": "16",
			"first_name": "Amara",
			"last_name": "McDermott",
			"gender": "female",
			"dob": "1963-07-04",
			"email": "fabian94@example.com",
			"phone": "(559) 759-3752",
			"website": "http://damore.com/praesentium-iure-alias-atque-ut",
			"address": "6713 Buckridge Hill\nKoeppland, MS 35894-9094",
			"status": "inactive",
			"_links": {
				"self": {
					"href": "https://gorest.co.in/public-api/users/16"
				},
				"edit": {
					"href": "https://gorest.co.in/public-api/users/16"
				},
				"avatar": {
					"href": "https://lorempixel.com/250/250/people/?75127"
				}
			}
		},
		{
			"id": "17",
			"first_name": "Rudolph",
			"last_name": "O'Keefe",
			"gender": "male",
			"dob": "1994-05-16",
			"email": "cecilia40@example.com",
			"phone": "+1-789-257-2644",
			"website": "http://www.collier.info/quibusdam-nostrum-voluptatibus-doloribus-maiores.html",
			"address": "144 Lukas Branch\nPort Elna, IL 61766-8163",
			"status": "inactive",
			"_links": {
				"self": {
					"href": "https://gorest.co.in/public-api/users/17"
				},
				"edit": {
					"href": "https://gorest.co.in/public-api/users/17"
				},
				"avatar": {
					"href": "https://lorempixel.com/250/250/people/?48362"
				}
			}
		},
		{
			"id": "18",
			"first_name": "Lizzie",
			"last_name": "Harris",
			"gender": "female",
			"dob": "1926-10-06",
			"email": "pagac.angel@example.com",
			"phone": "950-518-7774 x7944",
			"website": "http://simonis.com/consectetur-voluptas-officia-aut-blanditiis",
			"address": "831 Mueller Greens Apt. 529\nAlizeville, NE 77984-7945",
			"status": "inactive",
			"_links": {
				"self": {
					"href": "https://gorest.co.in/public-api/users/18"
				},
				"edit": {
					"href": "https://gorest.co.in/public-api/users/18"
				},
				"avatar": {
					"href": "https://lorempixel.com/250/250/people/?53722"
				}
			}
		},
		{
			"id": "19",
			"first_name": "Alba",
			"last_name": "Baumbach",
			"gender": "female",
			"dob": "1921-12-21",
			"email": "vince.murphy@example.com",
			"phone": "1-504-435-6514",
			"website": "http://christiansen.info/maxime-provident-incidunt-doloremque-impedit-pariatur-quia.html",
			"address": "6743 Abby Light Apt. 940\nNorth Bryon, IN 75197-2547",
			"status": "active",
			"_links": {
				"self": {
					"href": "https://gorest.co.in/public-api/users/19"
				},
				"edit": {
					"href": "https://gorest.co.in/public-api/users/19"
				},
				"avatar": {
					"href": "https://lorempixel.com/250/250/people/?63516"
				}
			}
		},
		{
			"id": "20",
			"first_name": "Clemens",
			"last_name": "Schaefer",
			"gender": "male",
			"dob": "1944-03-31",
			"email": "lrodriguez@example.org",
			"phone": "590.283.0770",
			"website": "http://hodkiewicz.com/",
			"address": "194 Reuben Pass\nSouth Karley, CT 78335",
			"status": "inactive",
			"_links": {
				"self": {
					"href": "https://gorest.co.in/public-api/users/20"
				},
				"edit": {
					"href": "https://gorest.co.in/public-api/users/20"
				},
				"avatar": {
					"href": "https://lorempixel.com/250/250/people/?66686"
				}
			}
		},
		{
			"id": "21",
			"first_name": "Edgar",
			"last_name": "Purdy",
			"gender": "male",
			"dob": "2009-11-10",
			"email": "eileen97@example.com",
			"phone": "1-902-324-2306",
			"website": "https://shields.info/optio-impedit-quam-debitis-nihil.html",
			"address": "9127 Crist Creek\nNorth Lenoratown, TX 93157-0616",
			"status": "active",
			"_links": {
				"self": {
					"href": "https://gorest.co.in/public-api/users/21"
				},
				"edit": {
					"href": "https://gorest.co.in/public-api/users/21"
				},
				"avatar": {
					"href": "https://lorempixel.com/250/250/people/?45327"
				}
			}
		},
		{
			"id": "22",
			"first_name": "Antonia",
			"last_name": "Reilly",
			"gender": "female",
			"dob": "1921-12-14",
			"email": "ephraim.kirlin@example.com",
			"phone": "214-447-6111 x2808",
			"website": "http://www.hahn.com/et-corrupti-aut-quo-quam.html",
			"address": "190 Gaylord Spurs Apt. 709\nPort Mckayla, CT 44770",
			"status": "inactive",
			"_links": {
				"self": {
					"href": "https://gorest.co.in/public-api/users/22"
				},
				"edit": {
					"href": "https://gorest.co.in/public-api/users/22"
				},
				"avatar": {
					"href": "https://lorempixel.com/250/250/people/?59670"
				}
			}
		},
		{
			"id": "23",
			"first_name": "Abel",
			"last_name": "Jakubowski",
			"gender": "male",
			"dob": "2017-08-04",
			"email": "hoeger.dagmar@example.net",
			"phone": "(659) 389-9487",
			"website": "http://moen.com/repellendus-aut-quas-est-eaque-ab-ipsa-culpa",
			"address": "625 Doyle Brook\nNorth Vidafurt, AL 99158",
			"status": "active",
			"_links": {
				"self": {
					"href": "https://gorest.co.in/public-api/users/23"
				},
				"edit": {
					"href": "https://gorest.co.in/public-api/users/23"
				},
				"avatar": {
					"href": "https://lorempixel.com/250/250/people/?22560"
				}
			}
		},
		{
			"id": "24",
			"first_name": "Gustave",
			"last_name": "Konopelski",
			"gender": "male",
			"dob": "1972-05-12",
			"email": "predovic.aryanna@example.org",
			"phone": "+1 (719) 657-2437",
			"website": "http://www.runolfsdottir.com/aspernatur-mollitia-sit-sint-ut-rerum-sunt",
			"address": "650 Hauck Meadow Apt. 903\nEast Summer, FL 13020",
			"status": "inactive",
			"_links": {
				"self": {
					"href": "https://gorest.co.in/public-api/users/24"
				},
				"edit": {
					"href": "https://gorest.co.in/public-api/users/24"
				},
				"avatar": {
					"href": "https://lorempixel.com/250/250/people/?61042"
				}
			}
		},
		{
			"id": "25",
			"first_name": "Gordon",
			"last_name": "Schuster",
			"gender": "male",
			"dob": "1962-01-30",
			"email": "wisozk.shanon@example.net",
			"phone": "342-447-2606",
			"website": "http://www.sauer.com/deserunt-illo-ut-distinctio-aut-quod",
			"address": "3499 Anastasia Keys\nLindgrenhaven, VT 76740-7128",
			"status": "active",
			"_links": {
				"self": {
					"href": "https://gorest.co.in/public-api/users/25"
				},
				"edit": {
					"href": "https://gorest.co.in/public-api/users/25"
				},
				"avatar": {
					"href": "https://lorempixel.com/250/250/people/?98544"
				}
			}
		},
		{
			"id": "26",
			"first_name": "Kathryn",
			"last_name": "Balistreri",
			"gender": "female",
			"dob": "1927-08-30",
			"email": "lue.stracke@example.net",
			"phone": "(640) 719-5861 x26441",
			"website": "http://www.kerluke.com/",
			"address": "555 Judge Mission Suite 640\nNew Yesenia, NM 20027-1051",
			"status": "inactive",
			"_links": {
				"self": {
					"href": "https://gorest.co.in/public-api/users/26"
				},
				"edit": {
					"href": "https://gorest.co.in/public-api/users/26"
				},
				"avatar": {
					"href": "https://lorempixel.com/250/250/people/?29041"
				}
			}
		},
		{
			"id": "27",
			"first_name": "Golden",
			"last_name": "Strosin",
			"gender": "male",
			"dob": "1964-02-08",
			"email": "amalia.lesch@example.net",
			"phone": "+1 (971) 718-4034",
			"website": "http://www.stokes.com/",
			"address": "21760 Oda Curve\nFeesthaven, FL 44312",
			"status": "active",
			"_links": {
				"self": {
					"href": "https://gorest.co.in/public-api/users/27"
				},
				"edit": {
					"href": "https://gorest.co.in/public-api/users/27"
				},
				"avatar": {
					"href": "https://lorempixel.com/250/250/people/?74831"
				}
			}
		},
		{
			"id": "28",
			"first_name": "Taurean",
			"last_name": "Haley",
			"gender": "male",
			"dob": "1961-05-28",
			"email": "lou.kohler@example.org",
			"phone": "567.644.0508 x04208",
			"website": "http://www.hagenes.com/porro-repudiandae-soluta-labore-et-architecto-aliquam-nihil",
			"address": "8150 Brendon Forest\nPort Dudley, VA 29187",
			"status": "inactive",
			"_links": {
				"self": {
					"href": "https://gorest.co.in/public-api/users/28"
				},
				"edit": {
					"href": "https://gorest.co.in/public-api/users/28"
				},
				"avatar": {
					"href": "https://lorempixel.com/250/250/people/?94902"
				}
			}
		},
		{
			"id": "29",
			"first_name": "Cassidy",
			"last_name": "McCullough",
			"gender": "female",
			"dob": "1920-12-29",
			"email": "kfahey@example.com",
			"phone": "1-459-843-5988 x1070",
			"website": "http://www.windler.com/hic-quia-quisquam-eum-dolor",
			"address": "1444 Keely Parkways Suite 797\nRogerschester, ME 01569",
			"status": "active",
			"_links": {
				"self": {
					"href": "https://gorest.co.in/public-api/users/29"
				},
				"edit": {
					"href": "https://gorest.co.in/public-api/users/29"
				},
				"avatar": {
					"href": "https://lorempixel.com/250/250/people/?92291"
				}
			}
		},
		{
			"id": "30",
			"first_name": "Lamar",
			"last_name": "O'Hara",
			"gender": "male",
			"dob": "1932-10-15",
			"email": "xcollier@example.net",
			"phone": "(287) 586-4812 x463",
			"website": "http://www.upton.com/eos-sapiente-sit-nesciunt-quas-laudantium-at-voluptas",
			"address": "8950 Jakayla Field\nHelgaville, MN 23288",
			"status": "inactive",
			"_links": {
				"self": {
					"href": "https://gorest.co.in/public-api/users/30"
				},
				"edit": {
					"href": "https://gorest.co.in/public-api/users/30"
				},
				"avatar": {
					"href": "https://lorempixel.com/250/250/people/?23328"
				}
			}
		},
		{
			"id": "31",
			"first_name": "Trevion",
			"last_name": "Murazik",
			"gender": "male",
			"dob": "2009-01-07",
			"email": "nkiehn@example.com",
			"phone": "791.345.0217",
			"website": "http://www.terry.org/ab-non-laudantium-in-aut-nihil-sed-sit",
			"address": "796 Dorthy Extension\nAnnamarieberg, CA 36288-0201",
			"status": "active",
			"_links": {
				"self": {
					"href": "https://gorest.co.in/public-api/users/31"
				},
				"edit": {
					"href": "https://gorest.co.in/public-api/users/31"
				},
				"avatar": {
					"href": "https://lorempixel.com/250/250/people/?40437"
				}
			}
		},
		{
			"id": "32",
			"first_name": "Marjory",
			"last_name": "Johnston",
			"gender": "female",
			"dob": "1932-04-03",
			"email": "gabrielle59@example.com",
			"phone": "1-490-318-1915 x580",
			"website": "http://mayert.com/quae-voluptate-est-voluptates-ut-illo.html",
			"address": "5030 Jane Valley\nSouth Clarktown, OK 06001-6099",
			"status": "active",
			"_links": {
				"self": {
					"href": "https://gorest.co.in/public-api/users/32"
				},
				"edit": {
					"href": "https://gorest.co.in/public-api/users/32"
				},
				"avatar": {
					"href": "https://lorempixel.com/250/250/people/?28756"
				}
			}
		},
		{
			"id": "33",
			"first_name": "Lulu",
			"last_name": "Bayer",
			"gender": "female",
			"dob": "1927-02-21",
			"email": "aliza78@example.com",
			"phone": "+1.536.949.2706",
			"website": "http://cartwright.com/",
			"address": "846 Roberta Fork\nSouth Mohammad, NM 13957-5833",
			"status": "inactive",
			"_links": {
				"self": {
					"href": "https://gorest.co.in/public-api/users/33"
				},
				"edit": {
					"href": "https://gorest.co.in/public-api/users/33"
				},
				"avatar": {
					"href": "https://lorempixel.com/250/250/people/?40472"
				}
			}
		},
		{
			"id": "34",
			"first_name": "Jeffrey",
			"last_name": "Bauch",
			"gender": "male",
			"dob": "1960-10-24",
			"email": "cjones@example.org",
			"phone": "1-997-490-4228 x849",
			"website": "http://pfeffer.org/debitis-vel-dolorum-in-similique-quae-animi-aut",
			"address": "17135 Will Mountains\nPort Hannahshire, FL 74402-8022",
			"status": "active",
			"_links": {
				"self": {
					"href": "https://gorest.co.in/public-api/users/34"
				},
				"edit": {
					"href": "https://gorest.co.in/public-api/users/34"
				},
				"avatar": {
					"href": "https://lorempixel.com/250/250/people/?39424"
				}
			}
		},
		{
			"id": "35",
			"first_name": "Garret",
			"last_name": "Ferry",
			"gender": "male",
			"dob": "2006-05-21",
			"email": "fratke@example.org",
			"phone": "+1.875.535.0141",
			"website": "https://www.stiedemann.com/suscipit-repellat-corporis-temporibus-hic-dolor-magnam-esse-animi",
			"address": "2695 Rodriguez Highway\nNorth Ebonyhaven, AR 61195-3155",
			"status": "active",
			"_links": {
				"self": {
					"href": "https://gorest.co.in/public-api/users/35"
				},
				"edit": {
					"href": "https://gorest.co.in/public-api/users/35"
				},
				"avatar": {
					"href": "https://lorempixel.com/250/250/people/?36895"
				}
			}
		}
	]
}
